<?xml version="1.0" standalone="no"?>
<!DOCTYPE svg PUBLIC "-//W3C//DTD SVG 1.1//EN" "http://www.w3.org/Graphics/SVG/1.1/DTD/svg11.dtd" >
<svg xmlns="http://www.w3.org/2000/svg">
<metadata></metadata>
<defs>
<font id="helvetica_neue_celight" horiz-adv-x="1138" >
<font-face units-per-em="2048" ascent="1638" descent="-410" />
<missing-glyph horiz-adv-x="569" />
<glyph horiz-adv-x="0" />
<glyph unicode="&#xd;" horiz-adv-x="681" />
<glyph unicode=" "  horiz-adv-x="569" />
<glyph unicode="&#x09;" horiz-adv-x="569" />
<glyph unicode="&#xa0;" horiz-adv-x="569" />
<glyph unicode="!" horiz-adv-x="493" d="M162 0v217h172v-217h-172zM178 1026v436h139v-436l-30 -661h-78z" />
<glyph unicode="&#x22;" horiz-adv-x="757" d="M178 965v497h129v-497h-129zM451 965v497h129v-497h-129z" />
<glyph unicode="#" d="M72 457v92h237l45 319h-225v93h238l63 454h102l-63 -454h289l63 454h103l-64 -454h215v-93h-227l-45 -319h215v-92h-227l-64 -457h-102l63 457h-289l-63 -457h-103l64 457h-225zM412 549h288l45 319h-288z" />
<glyph unicode="$" d="M59 467h129q2 -350 338 -389v606q-100 23 -166.5 47.5t-132 68.5t-98.5 117.5t-33 176.5q0 180 124 289.5t306 109.5v160h80v-160q184 0 311 -124t123 -320h-129q-2 152 -86 243.5t-219 91.5v-589q102 -23 175 -47.5t146.5 -70.5t112.5 -121t39 -177q0 -190 -140 -301 t-333 -109v-174h-80v176q-238 23 -347.5 141.5t-119.5 354.5zM225 1079q0 -55 18.5 -97t42 -67.5t69.5 -47t79 -31t92 -23.5v571q-133 0 -217 -75.5t-84 -229.5zM606 78q143 0 243.5 74.5t100.5 224.5q0 70 -28.5 121t-86 83.5t-106.5 50.5t-123 36v-590z" />
<glyph unicode="%" horiz-adv-x="1820" d="M141 1059q0 176 80 281.5t246 105.5t246 -105.5t80 -281.5t-80 -281.5t-246 -105.5t-246 105.5t-80 281.5zM250 1057q0 -119 50 -206t167 -87t167 87t50 206q0 121 -50 209t-167 88t-167 -88t-50 -209zM389 -70l928 1555h96l-926 -1555h-98zM1040 356q0 176 80 281.5 t246 105.5t246 -105.5t80 -281.5t-80 -281.5t-246 -105.5t-246 105.5t-80 281.5zM1149 354q0 -119 50 -206t167 -87t167 87.5t50 205.5q0 121 -50 209t-167 88t-167 -88t-50 -209z" />
<glyph unicode="&#x26;" horiz-adv-x="1251" d="M80 379q0 242 358 434q-8 10 -39.5 51t-43 56.5t-36 53.5t-34 62.5t-18.5 59t-9 69.5q0 131 93 214t230.5 83t230.5 -83t93 -214q0 -123 -74.5 -208t-212.5 -171l320 -385q43 88 43 246h129q0 -190 -86 -350l246 -297h-162l-156 190q-176 -221 -430 -221 q-195 0 -318.5 108.5t-123.5 301.5zM209 367q0 -125 94 -207t223 -82q199 0 346 209l-364 442q-299 -162 -299 -362zM387 1165q0 -47 34 -110.5t54.5 -90t75.5 -94.5q225 139 225 295q0 88 -55 138.5t-139 50.5t-139.5 -50.5t-55.5 -138.5z" />
<glyph unicode="'" horiz-adv-x="569" d="M221 965v497h129v-497h-129z" />
<glyph unicode="(" horiz-adv-x="493" d="M104 545q0 500 289 948h103q-262 -418 -263 -995q0 -219 72 -456.5t191 -432.5h-103q-145 240 -217 460t-72 476z" />
<glyph unicode=")" horiz-adv-x="493" d="M-2 -391q262 418 262 995q0 219 -71.5 456.5t-190.5 432.5h102q145 -240 217 -460t72 -476q0 -500 -289 -948h-102z" />
<glyph unicode="*" horiz-adv-x="720" d="M55 1219l29 75l235 -84v252h80v-252l236 84l31 -75l-242 -80l147 -201l-65 -47l-150 205l-149 -205l-66 47l150 201z" />
<glyph unicode="+" horiz-adv-x="1228" d="M100 461v108h461v461h109v-461h460v-108h-460v-461h-109v461h-461z" />
<glyph unicode="," horiz-adv-x="569" d="M190 -193q47 16 73 76t22 117h-86v217h172v-219q-2 -96 -48.5 -175t-132.5 -104v88z" />
<glyph unicode="-" horiz-adv-x="757" d="M123 504v119h512v-119h-512z" />
<glyph unicode="." horiz-adv-x="569" d="M199 0v217h172v-217h-172z" />
<glyph unicode="/" horiz-adv-x="681" d="M-27 -31l631 1524h105l-625 -1524h-111z" />
<glyph unicode="0" d="M70 706.5q0 110.5 11 207t45 197.5t87 172t144.5 117t212 46t211.5 -46t144.5 -117t87.5 -172t45 -196.5t11 -206t-11 -206.5t-45 -197.5t-87.5 -172.5t-144.5 -117t-211.5 -46t-212 46t-144.5 117t-87 172.5t-45 196.5t-11 205.5zM199 709q0 -631 370.5 -631t370.5 631 q0 628 -370.5 628t-370.5 -628z" />
<glyph unicode="1" d="M199 1065v92q63 2 91.5 4t78 8.5t73 16.5t55 30.5t49 48t33 70.5t23.5 99h105v-1434h-129v1065h-379z" />
<glyph unicode="2" d="M74 0q2 121 50 219t129 170t164 128t184 126t163 131q119 123 119 270q0 135 -93.5 214t-228.5 79q-166 0 -247 -113.5t-76 -285.5h-129q-4 229 113.5 368.5t344.5 139.5q195 0 320 -105.5t125 -298.5q0 -164 -96.5 -282.5t-264.5 -227.5q-20 -14 -92 -58t-112.5 -74.5 t-96 -77t-87.5 -97.5t-42 -106h797v-119h-944z" />
<glyph unicode="3" d="M68 457h129q-6 -172 90 -275.5t268 -103.5q150 0 258.5 85t108.5 232q0 145 -97.5 224t-246.5 79h-109v109h109q113 -2 201.5 66.5t88.5 193.5q0 135 -88 202.5t-225 67.5q-158 0 -244 -99t-82 -263h-129q2 207 125 339t328 132q184 0 314 -93t130 -272 q0 -119 -64.5 -204.5t-176.5 -112.5v-4q139 -23 217 -118t78 -236q0 -203 -142.5 -320t-351.5 -117q-229 0 -366 131.5t-123 356.5z" />
<glyph unicode="4" d="M61 356v125l664 953h117v-969h215v-109h-215v-356h-119v356h-662zM178 465h545v780h-4z" />
<glyph unicode="5" d="M74 410h129q4 -147 103.5 -239.5t248.5 -92.5q162 0 260 114.5t98 276.5q0 160 -103 266.5t-263 106.5q-96 0 -182 -45t-138 -125h-110l139 743h717v-119h-627l-92 -475l4 -4q53 61 136 97t167 36q219 0 350 -138t131 -357q0 -209 -144 -347.5t-353 -138.5 q-203 0 -335 120t-136 321z" />
<glyph unicode="6" d="M82 731q0 68 7 141.5t39 182t83 190.5t150.5 141.5t232.5 59.5q190 0 303.5 -94.5t136.5 -280.5h-129q-16 121 -96 193.5t-203 72.5q-119 0 -201.5 -61.5t-121.5 -163.5t-55.5 -202.5t-16.5 -213.5h4q51 106 155.5 172t225.5 66q213 0 343 -133t130 -346 q0 -209 -137 -347.5t-348 -138.5q-264 0 -383 174t-119 588zM238 446q0 -162 90 -265t268 -103q150 0 247 107.5t97 260.5q0 162 -93 270.5t-253 108.5q-164 0 -260 -107.5t-96 -271.5z" />
<glyph unicode="7" d="M104 1296v119h922v-119q-545 -569 -580 -1296h-139q27 367 161 662.5t429 633.5h-793z" />
<glyph unicode="8" d="M76 401q4 141 82 241.5t209 125.5v4q-113 35 -173.5 116t-60.5 199q0 172 130 265.5t304 93.5q176 0 306.5 -93.5t130.5 -265.5q0 -117 -62.5 -199.5t-171.5 -115.5v-4q137 -27 215 -124t78 -243q0 -207 -140.5 -319.5t-353.5 -112.5t-353 113t-140 319zM205 401 q0 -156 103 -239.5t261 -83.5q160 0 262.5 83t102.5 240q0 150 -106.5 233t-258.5 79q-156 4 -260 -78t-104 -234zM262 1087q0 -135 90 -202.5t217 -63.5q127 -4 216 65.5t89 200.5q0 119 -84.5 184.5t-220.5 65.5q-127 0 -217 -66.5t-90 -183.5z" />
<glyph unicode="9" d="M70 961q0 209 137 347t348 138q264 0 383 -174t119 -588q0 -68 -7.5 -141.5t-39 -182t-82.5 -190.5t-150.5 -141.5t-232.5 -59.5q-190 0 -304 94.5t-137 280.5h129q16 -121 96.5 -193.5t202.5 -72.5q119 0 202 61.5t122 164t55.5 202.5t16.5 213h-4q-51 -106 -155.5 -172 t-225.5 -66q-213 0 -343 133.5t-130 346.5zM199 969q0 -162 93 -270.5t253 -108.5q164 0 260 107.5t96 271.5q0 162 -90 265t-268 103q-150 0 -247 -107.5t-97 -260.5z" />
<glyph unicode=":" horiz-adv-x="569" d="M199 0v217h172v-217h-172zM199 807v217h172v-217h-172z" />
<glyph unicode=";" horiz-adv-x="569" d="M190 -193q47 16 73 76t22 117h-86v217h172v-219q-2 -96 -48.5 -175t-132.5 -104v88zM199 807v217h172v-217h-172z" />
<glyph unicode="&#x3c;" horiz-adv-x="1228" d="M94 463v110l1041 480v-113l-914 -422l914 -422v-112z" />
<glyph unicode="=" horiz-adv-x="1228" d="M100 262v109h1030v-109h-1030zM100 666v108h1030v-108h-1030z" />
<glyph unicode="&#x3e;" horiz-adv-x="1228" d="M94 -16v112l914 422l-914 422v113l1041 -480v-110z" />
<glyph unicode="?" horiz-adv-x="1099" d="M111 1012q2 221 123.5 351t340.5 130q176 0 296 -103.5t120 -275.5q0 -106 -45 -186t-133 -162q-23 -23 -57.5 -56.5t-45 -46t-32 -34t-25.5 -35.5t-13 -35.5t-10 -49.5t-3 -59.5t-4 -82.5h-129q-2 94 8 156.5t46 119.5t68.5 92t112.5 109q133 125 133 264 q0 121 -85 198.5t-208 77.5q-162 0 -247.5 -103t-81.5 -269h-129zM473 0v217h172v-217h-172z" />
<glyph unicode="@" horiz-adv-x="1638" d="M96 737q0 319 218 537.5t534 218.5q299 0 496.5 -178t197.5 -459q0 -240 -148.5 -417t-326.5 -177q-55 0 -93 36t-44 101h-4q-127 -135 -260 -135q-123 0 -197 86t-74 211q0 143 59.5 277.5t173 224.5t253.5 90q154 0 217 -172l51 133h108l-196 -590q-55 -170 26 -170 q133 0 240 165t107 343q0 246 -168 392.5t-414 146.5q-283 0 -465 -195.5t-182 -482.5q0 -281 186.5 -471.5t464.5 -190.5q152 0 296 73t232 200h105q-92 -168 -265 -266.5t-368 -98.5q-328 0 -544 221.5t-216 546.5zM524 571q0 -90 47 -144t123 -54q90 0 171 84t125 194.5 t44 202.5q0 72 -51.5 131t-110.5 59q-145 0 -246.5 -156.5t-101.5 -316.5z" />
<glyph unicode="A" horiz-adv-x="1290" d="M-14 0l589 1462h156l574 -1462h-150l-178 455h-666l-176 -455h-149zM354 573h576l-283 750z" />
<glyph unicode="B" horiz-adv-x="1366" d="M147 0v1462h619q133 0 232.5 -30.5t168 -114.5t68.5 -213q0 -117 -70.5 -210t-183.5 -118v-4q141 -18 225 -115.5t84 -240.5q0 -51 -8 -97.5t-40 -107.5t-85 -105.5t-154.5 -75t-236.5 -30.5h-619zM287 119h479h10q375 0 375 301q0 139 -100.5 210.5t-284.5 71.5h-479 v-583zM287 821h479q160 0 245 70t85 178q0 274 -330 274h-479v-522z" />
<glyph unicode="C" horiz-adv-x="1441" d="M78 731q0 205 74.5 375t234.5 278.5t381 108.5q219 0 390 -127t198 -346h-139q-37 166 -161 260t-288 94q-139 0 -247.5 -55t-173 -147.5t-97.5 -204t-33 -236.5t33 -236.5t97.5 -203.5t173 -147.5t247.5 -55.5q197 0 323 133t146 336h139q-29 -270 -191.5 -429 t-416.5 -159q-221 0 -381 108.5t-234.5 278.5t-74.5 375z" />
<glyph unicode="D" horiz-adv-x="1402" d="M147 0v1462h506q672 -16 672 -731t-672 -731h-506zM287 119h297h9q307 1 449 143q144 144 144 470t-144 470q-141 142 -445 141h-13h-297v-1224z" />
<glyph unicode="E" horiz-adv-x="1214" d="M147 0v1462h1010v-119h-870v-528h815v-119h-815v-577h880v-119h-1020z" />
<glyph unicode="F" horiz-adv-x="1099" d="M147 0v1462h928v-119h-788v-528h700v-119h-700v-696h-140z" />
<glyph unicode="G" horiz-adv-x="1517" d="M78 731q0 205 74.5 375t234.5 278.5t381 108.5q238 0 404.5 -126t205.5 -359h-139q-14 139 -144 252.5t-327 113.5q-139 0 -247.5 -55t-173 -147.5t-97.5 -204t-33 -236.5t33 -236.5t97.5 -203.5t173 -147.5t247.5 -55.5q238 0 374 150q132 145 132 373v14h-498v118h621 v-743h-101l-18 266h-4q-70 -150 -204 -223.5t-302 -73.5q-221 0 -381 108.5t-234.5 278.5t-74.5 375z" />
<glyph unicode="H" horiz-adv-x="1441" d="M147 0v1462h140v-635h868v635h139v-1462h-139v709h-868v-709h-140z" />
<glyph unicode="I" horiz-adv-x="454" d="M158 0v1462h139v-1462h-139z" />
<glyph unicode="J" horiz-adv-x="1024" d="M43 469h139q6 -160 27 -221q57 -160 254 -160q158 0 216 86t58 293v995h140v-1054q0 -227 -97.5 -333t-328.5 -106q-408 0 -408 490v10z" />
<glyph unicode="K" horiz-adv-x="1327" d="M147 0v1462h140v-786l850 786h188l-653 -604l684 -858h-180l-609 762l-280 -260v-502h-140z" />
<glyph unicode="L" horiz-adv-x="1099" d="M147 0v1462h140v-1343h819v-119h-959z" />
<glyph unicode="M" horiz-adv-x="1705" d="M143 0v1462h205l506 -1282l504 1282h205v-1462h-140v1264h-4l-499 -1264h-132l-501 1264h-4v-1264h-140z" />
<glyph unicode="N" horiz-adv-x="1441" d="M145 0v1462h156l852 -1237h4v1237h139v-1462h-155l-852 1237h-4v-1237h-140z" />
<glyph unicode="O" horiz-adv-x="1517" d="M70 731q0 205 74.5 375t234.5 278.5t381 108.5q166 0 300 -62.5t217 -169t127 -242.5t44 -287.5t-44 -288t-127 -243t-217 -169t-300 -62.5q-221 0 -381 108.5t-234.5 278.5t-74.5 375zM209 731q0 -125 32.5 -236.5t97 -203.5t173.5 -147.5t248 -55.5t247.5 55.5 t172 147.5t96.5 203.5t33 236.5t-33 236.5t-96.5 204t-172 147.5t-247.5 55t-248 -55t-173.5 -147.5t-97 -204t-32.5 -236.5z" />
<glyph unicode="P" horiz-adv-x="1290" d="M147 0v1462h650q199 0 316.5 -110.5t117.5 -307t-118 -307t-316 -110.5h-510v-627h-140zM287 745h479q150 0 238 77t88 222.5t-88.5 222t-237.5 76.5h-479v-598z" />
<glyph unicode="Q" horiz-adv-x="1517" d="M70 731q0 205 74.5 375t234.5 278.5t381 108.5q166 0 300 -62.5t217 -169t127 -242.5t44 -288q0 -367 -221 -579l209 -160l-70 -86l-227 172q-156 -109 -379 -109q-221 0 -381 108.5t-234.5 278.5t-74.5 375zM209 731q0 -125 32.5 -236.5t97 -203.5t173.5 -147.5 t248 -55.5q158 0 270 72l-192 145l71 88l213 -162q186 178 187 500q0 125 -33 236.5t-96.5 204t-172 147.5t-247.5 55t-248 -55t-173.5 -147.5t-97 -204t-32.5 -236.5z" />
<glyph unicode="R" horiz-adv-x="1366" d="M147 0v1462h670q195 0 320 -96t125 -285q0 -143 -74 -244.5t-211 -127.5v-4q133 -16 190.5 -101.5t65.5 -228.5q0 -6 3 -67.5t6 -90.5t9 -79t18.5 -84t30.5 -54h-153q-10 16 -17.5 37.5t-10.5 51.5t-5 47.5t-4 51t-2 39.5q-4 57 -6 89t-10.5 84.5t-20.5 83t-33.5 67.5 t-50.5 56.5t-73 31.5q-38 10 -84 10h-15h-528v-649h-140zM287 768h520q133 0 224 78t91 207q0 137 -80.5 213.5t-234.5 76.5h-520v-575z" />
<glyph unicode="S" horiz-adv-x="1290" d="M74 481h139v-13q0 -380 477 -380q84 0 169 27.5t151.5 99.5t66.5 170q0 190 -301 264l-325 80q-152 39 -241 118t-89 234q0 61 22.5 126t73.5 132.5t156.5 110.5t251.5 43q229 0 385 -120q155 -118 155 -330v-5h-139q-6 160 -120.5 248t-278.5 88q-160 0 -263.5 -69.5 t-103.5 -221.5q0 -170 221 -223l357 -88q86 -23 148.5 -50.5t117.5 -71.5t84 -110.5t29 -152.5q0 -41 -7.5 -83t-41 -106.5t-89 -111.5t-165 -82t-257.5 -35q-275 0 -435 128q-149 119 -149 349q0 17 1 35z" />
<glyph unicode="T" d="M-10 1343v119h1159v-119h-510v-1343h-139v1343h-510z" />
<glyph unicode="U" horiz-adv-x="1402" d="M133 526v936h139v-905v-9q0 -238 109 -348q111 -112 319 -112q211 0 322 112q108 109 108 344v13v905h140v-936q0 -246 -140.5 -401.5t-429.5 -155.5q-287 0 -427 156.5t-140 400.5z" />
<glyph unicode="V" horiz-adv-x="1214" d="M-14 1462h149l475 -1308h4l471 1308h148l-543 -1462h-162z" />
<glyph unicode="W" horiz-adv-x="1857" d="M0 1462h150l331 -1280h4l357 1280h174l358 -1280h4l334 1280h139l-403 -1462h-148l-370 1309h-4l-369 -1309h-151z" />
<glyph unicode="X" horiz-adv-x="1175" d="M-25 0l527 754l-496 708h164l414 -612l428 612h155l-499 -712l528 -750h-168l-444 645l-451 -645h-158z" />
<glyph unicode="Y" horiz-adv-x="1251" d="M-20 1462h165l482 -741l479 741h166l-578 -860v-602h-139v602z" />
<glyph unicode="Z" horiz-adv-x="1175" d="M10 0v123l963 1220h-897v119h1052v-123l-962 -1220h983v-119h-1139z" />
<glyph unicode="[" horiz-adv-x="493" d="M156 -391v1884h329v-109h-200v-1667h200v-108h-329z" />
<glyph unicode="\" horiz-adv-x="681" d="M-27 1493h105l631 -1524h-111z" />
<glyph unicode="]" horiz-adv-x="493" d="M8 -283h201v1667h-201v109h330v-1884h-330v108z" />
<glyph unicode="^" horiz-adv-x="1228" d="M90 487l471 928h107l471 -928h-117l-410 799l-403 -799h-119z" />
<glyph unicode="_" horiz-adv-x="1024" d="M0 -154h1024v-102h-1024v102z" />
<glyph unicode="`" horiz-adv-x="378" d="M-63 1493h159l215 -289h-104z" />
<glyph unicode="a" horiz-adv-x="1062" d="M66 279q0 80 29.5 138t72.5 90t117.5 54.5t134 31.5t155.5 19q12 0 19.5 1t19 2t19.5 3q92 10 129 37t37 107q0 217 -277 217q-127 0 -203.5 -61.5t-78.5 -184.5h-129q8 178 122.5 266t305.5 88q389 0 389 -339v-562q0 -77 74 -77h2q20 0 40 8v-109q-39 -8 -83 -8 q-92 0 -122 45t-30 139h-4q-74 -113 -158 -164t-227 -51q-156 0 -255 79t-99 231zM195 287q0 -92 70.5 -150.5t164.5 -58.5q154 0 262 91q107 89 107 236v5v168h-4q-16 -31 -109 -48q-37 -6 -110.5 -17t-115.5 -17.5t-99.5 -23.5t-88 -38.5t-54 -59.5t-23.5 -87z" />
<glyph unicode="b" horiz-adv-x="1175" d="M123 0v1462h129v-606h4q41 111 142.5 171t224.5 60q229 0 352 -159.5t123 -399t-123 -399.5t-352 -160q-129 0 -230.5 62.5t-146.5 169.5h-4v-201h-119zM252 528.5q0 -186.5 90 -318.5t281 -132q117 0 197.5 68.5t114.5 167t34 215t-34 215t-115 167t-197 68.5 q-190 0 -280.5 -132t-90.5 -318.5z" />
<glyph unicode="c" horiz-adv-x="1062" d="M70 528.5q0 237.5 133 398t366 160.5q174 0 291 -93t137 -269h-129q-55 254 -299 254q-176 0 -273 -134t-97 -316.5t97 -316.5t273 -134q121 0 208 85t100 216h129q-27 -190 -144 -300t-293 -110q-233 0 -366 161t-133 398.5z" />
<glyph unicode="d" horiz-adv-x="1175" d="M78 528.5q0 239.5 123 399t352 159.5q123 0 224.5 -60t142.5 -171h4v606h129v-1462h-119v201h-4q-41 -100 -149.5 -166t-227.5 -66q-229 0 -352 160t-123 399.5zM207 528.5q0 -116.5 33.5 -215t114.5 -167t198 -68.5q190 0 280.5 132t90.5 318.5t-90.5 318.5t-280.5 132 q-117 0 -198 -68.5t-114.5 -167t-33.5 -215z" />
<glyph unicode="e" horiz-adv-x="1062" d="M70 528q0 147 47 269.5t158.5 206t271.5 83.5q123 0 217 -50t148 -136q52 -86 78 -189q22 -89 23 -187q0 -15 -1 -31h-813q2 -164 90 -290t258 -126q262 0 332 270h129q-88 -379 -461 -379q-238 0 -357.5 158t-119.5 401zM199 602h684q-4 156 -95.5 266.5t-241 110.5 t-240.5 -109.5t-107 -267.5z" />
<glyph unicode="f" horiz-adv-x="530" d="M12 948v109h181v96v10q0 143 54 219q56 80 202 80q53 0 108 -8v-111q-57 10 -94 11q-41 0 -69.5 -12.5t-42 -24.5t-20.5 -48t-8 -52.5t-1 -67.5v-92h208v-109h-208v-948h-129v948h-181z" />
<glyph unicode="g" d="M70 555q0 227 128 379.5t349 152.5q113 0 205 -61t131 -152h4v183h129v-971q-2 -250 -110.5 -379t-358.5 -129q-174 0 -300 81t-138 239h129q20 -109 105 -160t204 -51q340 0 340 399v143h-4q-45 -98 -134.5 -157.5t-201.5 -59.5q-242 0 -359.5 150.5t-117.5 392.5z M199 541q0 -174 90 -297t258 -123q160 0 250 124t90 296q0 82 -19.5 156.5t-58.5 139t-106.5 103.5t-155.5 39q-172 0 -260 -128t-88 -310z" />
<glyph unicode="h" horiz-adv-x="1099" d="M121 0v1462h129v-588h4q35 94 130 153.5t208 59.5q213 0 300 -103t87 -304v-680h-129v659q0 319 -268 320q-150 0 -239 -101.5t-93 -261.5v-616h-129z" />
<glyph unicode="i" horiz-adv-x="378" d="M125 0v1057h129v-1057h-129zM125 1255v207h129v-207h-129z" />
<glyph unicode="j" horiz-adv-x="378" d="M-61 -281q30 -3 51 -3q10 0 18 1q70 0 93.5 39t23.5 115v1186h129v-1155q0 -293 -225 -293q-16 0 -45 2t-45 2v106zM125 1255v207h129v-207h-129z" />
<glyph unicode="k" horiz-adv-x="1024" d="M123 0v1462h129v-917l586 512h172l-451 -391l481 -666h-161l-418 575l-209 -174v-401h-129z" />
<glyph unicode="l" horiz-adv-x="378" d="M125 0v1462h129v-1462h-129z" />
<glyph unicode="m" horiz-adv-x="1705" d="M123 0v1057h119v-178h6q110 208 344 208h2q109 0 191.5 -53t111.5 -153q45 100 136 153t200 53q350 0 350 -370v-717h-129v711q0 135 -58.5 201.5t-191.5 66.5q-287 0 -286 -381v-598h-130v717v8q0 111 -51 181q-53 72 -170 73q-160 0 -236.5 -106.5t-78.5 -282.5v-590 h-129z" />
<glyph unicode="n" horiz-adv-x="1099" d="M121 0v1057h129v-183h4q35 94 130 153.5t208 59.5q213 0 300 -103t87 -304v-680h-129v659q0 319 -268 320q-150 0 -239 -101.5t-93 -261.5v-616h-129z" />
<glyph unicode="o" d="M70 528.5q0 237.5 133 398t366.5 160.5t366.5 -160.5t133 -398t-133 -398.5t-366.5 -161t-366.5 161t-133 398.5zM199 528.5q0 -182.5 97 -316.5t273 -134t273.5 134t97.5 316.5t-97.5 316.5t-273.5 134t-273 -134t-97 -316.5z" />
<glyph unicode="p" horiz-adv-x="1175" d="M123 -391v1448h119v-201h4q45 106 146.5 168.5t230.5 62.5q229 0 352 -159.5t123 -399t-123 -399.5t-352 -160q-123 0 -224.5 60.5t-142.5 171.5h-4v-592h-129zM252 528q0 -186 90 -318t281 -132q117 0 197.5 68.5t114.5 167t34 215t-34 215t-115 167t-197 68.5 q-199 0 -285 -125t-86 -326z" />
<glyph unicode="q" horiz-adv-x="1175" d="M78 528.5q0 239.5 123 399t352 159.5q119 0 227.5 -65.5t149.5 -165.5h4v201h119v-1448h-129v592h-4q-41 -111 -142.5 -171.5t-224.5 -60.5q-229 0 -352 160t-123 399.5zM207 528.5q0 -116.5 33.5 -215t114.5 -167t198 -68.5q190 0 280.5 132t90.5 318.5t-90.5 318.5 t-280.5 132q-117 0 -198 -68.5t-114.5 -167t-33.5 -215z" />
<glyph unicode="r" horiz-adv-x="645" d="M123 0v1057h119v-248h4q50 129 154 199q96 64 223 64q11 0 22 -1v-129q-12 1 -23 1q-156 -1 -260 -103q-110 -110 -110 -277v-563h-129z" />
<glyph unicode="s" horiz-adv-x="985" d="M63 342h130q8 -127 93 -195.5t218 -68.5q109 0 199 50t90 151q0 84 -61.5 124.5t-170.5 67.5l-166 37q-147 39 -221 98.5t-74 184.5q0 150 119 223t279 73q166 0 273.5 -86.5t113.5 -252.5h-129q-4 115 -82 173t-195 58q-100 0 -175 -44t-75 -138q0 -123 220 -179 l172 -38q127 -18 214 -92t87 -201q0 -158 -128 -238t-296 -80q-190 0 -305 92.5t-130 280.5z" />
<glyph unicode="t" horiz-adv-x="606" d="M14 948v109h185v317h129v-317h215v-109h-215v-712q0 -70 20.5 -103t83.5 -37q55 0 111 6v-110q-18 0 -56 -2t-59 -2q-129 0 -180 51q-49 49 -49 176v10v723h-185z" />
<glyph unicode="u" horiz-adv-x="1099" d="M121 371v686h129v-688q4 -147 68.5 -219t213.5 -72q156 0 237 124t81 300v555h129v-1057h-119v190h-4q-49 -104 -147.5 -162.5t-216.5 -58.5q-371 0 -371 402z" />
<glyph unicode="v" horiz-adv-x="948" d="M4 1057h143l332 -928h4l328 928h133l-395 -1057h-137z" />
<glyph unicode="w" horiz-adv-x="1517" d="M16 1057h138l270 -905h4l258 905h145l259 -905h4l270 905h137l-340 -1057h-141l-260 889h-4l-258 -889h-142z" />
<glyph unicode="x" horiz-adv-x="985" d="M2 0l410 549l-379 508h162l301 -402l295 402h161l-381 -506l412 -551h-164l-332 444l-325 -444h-160z" />
<glyph unicode="y" horiz-adv-x="948" d="M4 1057h137l348 -901l326 901h129l-459 -1219q-57 -139 -109 -184t-169 -45q-80 4 -98 10v109q51 -10 88 -11q41 0 69.5 10.5t50 38t31.5 48t33 69.5l45 121z" />
<glyph unicode="z" horiz-adv-x="948" d="M31 0v104l690 844h-643v109h807v-92l-699 -856h727v-109h-882z" />
<glyph unicode="{" horiz-adv-x="681" d="M170 496v108q147 0 147 328v305q0 119 47.5 187.5t133.5 68.5h102v-109h-41q-113 0 -113 -210v-289q0 -100 -31.5 -180t-60 -110t-51.5 -42v-4q23 -12 51.5 -42t60 -110t31.5 -180v-289q0 -211 113 -211h41v-108h-102q-86 0 -133.5 68.5t-47.5 187.5v303q0 328 -147 328z " />
<glyph unicode="|" horiz-adv-x="454" d="M174 -438v2048h109v-2048h-109z" />
<glyph unicode="}" horiz-adv-x="681" d="M82 -283h41q113 0 113 211v289q0 100 31.5 180t60 110t51.5 42v4q-23 12 -51.5 42t-60 109.5t-31.5 180.5v289q0 211 -113 210h-41v109h102q86 0 133.5 -68.5t47.5 -187.5v-303q0 -328 147 -328v-108q-147 0 -147 -328v-305q0 -119 -47.5 -187.5t-133.5 -68.5h-102v108z " />
<glyph unicode="~" horiz-adv-x="1228" d="M141 461q92 176 256 176q84 0 236 -66q152 -68 201 -67q55 0 95 36.5t85 104.5l73 -74q-41 -55 -67.5 -85.5t-77.5 -60.5t-111 -30q-86 0 -225 68q-143 66 -219 65q-106 0 -172 -141z" />
<glyph unicode="&#xa1;" horiz-adv-x="493" d="M162 840v217h172v-217h-172zM178 31l31 661h78l30 -661v-422h-139v422z" />
<glyph unicode="&#xa2;" d="M111 528.5q0 223.5 117.5 380t324.5 174.5v183h80v-179q164 -4 274.5 -98t130.5 -264h-129q-53 246 -276 254v-901q113 6 192.5 91t92.5 210h129q-25 -184 -135.5 -294t-278.5 -116v-207h-80v209q-209 20 -325.5 177t-116.5 380.5zM240 528q0 -166 81.5 -295.5 t231.5 -152.5v895q-150 -23 -231.5 -151t-81.5 -296z" />
<glyph unicode="&#xa3;" d="M88 80q229 180 229 381q0 119 -57 215h-166v65h129q-113 184 -112 330q0 207 136 314.5t331 107.5q225 0 352 -130t123 -355h-129q0 170 -89.5 273t-256.5 103q-141 0 -239.5 -82.5t-98.5 -238.5q0 -63 17 -112.5t52 -112t51 -97.5h328v-65h-291q49 -78 49 -199 q0 -193 -225 -373l4 -4q119 61 199 62q98 0 209 -41q109 -43 176 -43q131 0 235 115l66 -99q-141 -125 -299 -125q-96 0 -217 39q-123 45 -207 45q-29 0 -52.5 -3t-51 -14t-35.5 -15.5t-44 -26t-42 -25.5z" />
<glyph unicode="&#xa4;" d="M59 279l117 116q-113 135 -113 314q0 176 111 315l-115 115l78 78l115 -115q139 115 319 115q178 0 314 -113l112 113l78 -78l-110 -111q115 -137 114.5 -319.5t-114.5 -319.5l110 -110l-78 -78l-112 112q-131 -113 -313.5 -112.5t-319.5 114.5l-115 -114zM193 708.5 q0 -163.5 110.5 -276.5t268 -113t268 113t110.5 276.5t-110.5 276.5t-268 113t-268 -113t-110.5 -276.5z" />
<glyph unicode="&#xa5;" d="M12 1462h148l407 -747l412 747h141l-432 -747h223v-92h-268l-12 -21v-149h280v-93h-280v-360h-129v360h-277v93h277v149l-13 21h-264v92h217z" />
<glyph unicode="&#xa6;" horiz-adv-x="454" d="M174 -182v512h109v-512h-109zM174 842v512h109v-512h-109z" />
<glyph unicode="&#xa7;" d="M92 690q0 96 63.5 173t159.5 114q-102 90 -102 223t104.5 213t241.5 80q174 0 276.5 -95t102.5 -268h-129q4 106 -63.5 180t-174.5 74q-96 0 -162.5 -46t-66.5 -136q0 -84 72.5 -153.5t176 -122t207 -109.5t176.5 -145t73 -199q0 -96 -63.5 -173t-160.5 -114 q102 -90 102.5 -223t-104 -213t-241.5 -80q-174 0 -276.5 95.5t-102.5 267.5h129q-4 -106 63.5 -180t173.5 -74q96 0 163 46t67 136q0 84 -73 153.5t-176.5 122t-206.5 109.5t-176 145.5t-73 198.5zM221 694q0 -72 60.5 -141.5t133 -112.5t179 -101t151.5 -89 q173 71 173 221q0 76 -61.5 145.5t-134.5 111.5t-179.5 98.5t-153.5 88.5q-168 -70 -168 -221z" />
<glyph unicode="&#xa8;" horiz-adv-x="378" d="M-61 1239v207h139v-207h-139zM301 1239v207h139v-207h-139z" />
<glyph unicode="&#xa9;" horiz-adv-x="1638" d="M57 731.5q0 321.5 220.5 541.5t542 220t541.5 -220t220 -541.5t-220 -542t-541.5 -220.5t-542 220.5t-220.5 542zM176 731.5q0 -274.5 184.5 -464t459 -189.5t458.5 189.5t184 464t-184 463.5t-458.5 189t-459 -189t-184.5 -463.5zM393 731q0 207 120 338t325 131 q150 0 255.5 -82t123.5 -227h-105q-18 94 -91 154.5t-181 62.5q-160 0 -249 -105.5t-89 -271.5t89 -271.5t249 -105.5q109 0 181.5 60.5t90.5 156.5h105q-18 -145 -124 -227t-255 -82q-205 0 -325 131t-120 338z" />
<glyph unicode="&#xaa;" horiz-adv-x="636" d="M-10 950q0 84 57 131t108.5 57.5t170.5 22.5q10 2 17 3t15 1q59 6 84 18.5t25 45.5q0 137 -180 137q-76 0 -125 -36.5t-51 -106.5h-97q12 223 287 223q55 0 98 -8t83 -30t60.5 -63.5t20.5 -103.5v-352q4 -47 51 -47q14 0 27 6v-70q-43 -6 -55 -6q-59 0 -79 26.5t-20 88.5 h-4q-84 -133 -252 -133q-109 0 -175 48t-66 148zM86 954q0 -51 45 -85.5t96 -34.5q100 0 171 53t69 141v96h-4q-8 -18 -70 -28q-25 -4 -68.5 -10.5t-65 -9.5t-55.5 -10t-50.5 -16.5t-35 -21.5t-25.5 -30.5t-7 -43.5z" />
<glyph unicode="&#xab;" horiz-adv-x="872" d="M123 500v127l272 256v-138l-192 -182l192 -182v-137zM453 500v127l272 256v-138l-193 -182l193 -182v-137z" />
<glyph unicode="&#xac;" horiz-adv-x="1228" d="M100 666v108h1030v-547h-108v439h-922z" />
<glyph unicode="&#xad;" horiz-adv-x="757" d="M123 504v119h512v-119h-512z" />
<glyph unicode="&#xae;" horiz-adv-x="1638" d="M57 731.5q0 321.5 220.5 541.5t542 220t541.5 -220t220 -541.5t-220 -542t-541.5 -220.5t-542 220.5t-220.5 542zM176 731.5q0 -274.5 184.5 -464t459 -189.5t458.5 189.5t184 464t-184 463.5t-458.5 189t-459 -189t-184.5 -463.5zM543 291v880h338q287 0 286 -243 q0 -207 -221 -246l262 -391h-127l-247 391h-183v-391h-108zM651 774h144q51 0 79.5 1t68.5 9.5t61.5 24.5t38 46t16.5 73q0 152 -209 151h-199v-305z" />
<glyph unicode="&#xaf;" horiz-adv-x="378" d="M-147 1298v93h673v-93h-673z" />
<glyph unicode="&#xb0;" horiz-adv-x="819" d="M115 1151q0 123 86 209t208.5 86t209 -86t86.5 -209t-86.5 -209t-209 -86t-208.5 86t-86 209zM195 1151q0 -90 62 -152.5t152.5 -62.5t153 62.5t62.5 152.5t-62.5 152.5t-153 62.5t-152.5 -62.5t-62 -152.5z" />
<glyph unicode="&#xb1;" horiz-adv-x="1228" d="M100 0v109h1030v-109h-1030zM102 553v109h459v368h109v-368h460v-109h-460v-369h-109v369h-459z" />
<glyph unicode="&#xb2;" horiz-adv-x="681" d="M31 561q2 76 32.5 136.5t84 104.5t106.5 77.5t119.5 75.5t105.5 79q80 76 80 164q0 76 -61.5 122t-149.5 46q-102 0 -153.5 -67.5t-49.5 -165.5h-96q-4 145 74 229t233 84q135 0 217 -65.5t82 -190.5q0 -98 -63.5 -169t-171.5 -136q-14 -8 -73.5 -43t-89.5 -55.5 t-66.5 -61.5t-49.5 -84h508v-80h-618z" />
<glyph unicode="&#xb3;" horiz-adv-x="681" d="M16 844h97q-4 -98 57 -159.5t168 -61.5q94 0 164.5 50t70.5 134q0 82 -64.5 127t-160.5 45h-72v80h72q72 0 131.5 40t59.5 111q0 76 -57.5 116t-143.5 40q-98 0 -152.5 -59.5t-52.5 -151.5h-96q2 131 82 211t219 80q125 0 211 -57.5t86 -169.5q0 -72 -42 -123.5 t-116 -67.5v-4q90 -12 141.5 -68.5t51.5 -142.5q0 -127 -94.5 -198.5t-235.5 -71.5q-154 0 -244 79.5t-80 221.5z" />
<glyph unicode="&#xb4;" horiz-adv-x="378" d="M68 1204l215 289h159l-270 -289h-104z" />
<glyph unicode="&#xb5;" horiz-adv-x="1099" d="M121 -391v1448h129v-688q4 -147 68.5 -219t213.5 -72q156 0 237 124t81 300v555h129v-1057h-119v190h-4q-49 -104 -147.5 -162.5t-216.5 -58.5q-143 0 -240 72v-432h-131z" />
<glyph unicode="&#xb6;" horiz-adv-x="1228" d="M135 1061q0 193 120 297t337 104h471v-1824h-129v1716h-246v-1716h-129v1034q-178 0 -301 114.5t-123 274.5z" />
<glyph unicode="&#xb7;" horiz-adv-x="569" d="M164 649q0 45 37 82t84 37q49 0 85 -37t36 -86q0 -47 -37 -83t-84 -36q-49 0 -85 37t-36 86z" />
<glyph unicode="&#xb8;" horiz-adv-x="378" d="M-12 -379l28 66q70 -29 162 -29q47 0 78 22.5t31 65.5q0 35 -25.5 56.5t-62.5 21.5q-72 0 -105 -17l-33 31l125 162h72l-90 -119q88 16 163 -12.5t75 -114.5t-69 -131t-157 -45q-104 0 -192 43z" />
<glyph unicode="&#xb9;" horiz-adv-x="681" d="M72 1196v80q68 2 101.5 6t72.5 18.5t58.5 45t29.5 81.5h82v-866h-97v635h-247z" />
<glyph unicode="&#xba;" horiz-adv-x="684" d="M6 1099.5q0 149.5 86 248t240 98.5q166 0 256 -97.5t90 -249t-90 -248.5t-256 -97q-154 0 -240 98t-86 247.5zM102 1099.5q0 -106.5 63.5 -186t176.5 -79.5t176.5 79.5t63.5 186t-63.5 186.5t-176.5 80t-176.5 -80t-63.5 -186.5z" />
<glyph unicode="&#xbb;" horiz-adv-x="872" d="M147 244v137l193 182l-193 182v138l273 -256v-127zM477 244v137l193 182l-193 182v138l273 -256v-127z" />
<glyph unicode="&#xbc;" horiz-adv-x="1708" d="M98 1196v80q68 2 101.5 6t72.5 18.5t58.5 45t29.5 81.5h82v-866h-96v635h-248zM272 -70l928 1555h96l-925 -1555h-99zM885 205v80l436 581h90v-581h139v-80h-139v-205h-96v205h-430zM979 285h336v442h-4z" />
<glyph unicode="&#xbd;" horiz-adv-x="1708" d="M98 1196v80q68 2 101.5 6t72.5 18.5t58.5 45t29.5 81.5h82v-866h-96v635h-248zM272 -70l928 1555h96l-925 -1555h-99zM983 0q2 76 33 136.5t84 104.5t106.5 77.5t120 75.5t105.5 79q80 76 79 164q0 76 -61 122t-150 46q-102 0 -153 -68t-49 -166h-97q-4 145 74 229.5 t234 84.5q135 0 217 -65.5t82 -190.5q0 -98 -63.5 -169t-172.5 -136q-14 -8 -73.5 -43t-89 -55.5t-66.5 -61.5t-49 -84h508v-80h-619z" />
<glyph unicode="&#xbe;" horiz-adv-x="1708" d="M16 844h97q-4 -98 57 -159.5t168 -61.5q94 0 164.5 50t70.5 134q0 82 -64.5 127t-160.5 45h-72v80h72q72 0 131.5 40t59.5 111q0 76 -57.5 116t-143.5 40q-98 0 -152.5 -59.5t-52.5 -151.5h-96q2 131 82 211t219 80q125 0 211 -57.5t86 -169.5q0 -72 -42 -123.5 t-116 -67.5v-4q90 -12 141.5 -68.5t51.5 -142.5q0 -127 -94.5 -198.5t-235.5 -71.5q-154 0 -244 79.5t-80 221.5zM354 -70l928 1555h96l-925 -1555h-99zM885 205v80l436 581h90v-581h139v-80h-139v-205h-96v205h-430zM979 285h336v442h-4z" />
<glyph unicode="&#xbf;" horiz-adv-x="1099" d="M111 -43q0 106 45 186t133 162q23 23 57.5 56.5t44.5 46t31.5 34t26 36t13.5 36t10 49t3 59t4 83.5h129q2 -94 -8 -157t-46 -120t-68.5 -92t-112.5 -109q-133 -125 -133 -264q0 -121 85 -198.5t207 -77.5q162 0 248 103t82 269h129q-2 -221 -124 -351t-341 -130 q-176 0 -295.5 103.5t-119.5 275.5zM457 840v217h172v-217h-172z" />
<glyph unicode="&#xc0;" horiz-adv-x="1290" d="M-14 0l589 1462h156l574 -1462h-150l-178 455h-666l-176 -455h-149zM354 573h576l-283 750zM356 1868h160l215 -289h-104z" />
<glyph unicode="&#xc1;" horiz-adv-x="1290" d="M-14 0l589 1462h156l574 -1462h-150l-178 455h-666l-176 -455h-149zM354 573h576l-283 750zM608 1579l215 289h160l-270 -289h-105z" />
<glyph unicode="&#xc2;" horiz-adv-x="1290" d="M-14 0l589 1462h156l574 -1462h-150l-178 455h-666l-176 -455h-149zM346 1579l234 289h141l233 -289h-133l-176 209l-180 -209h-119zM354 573h576l-283 750z" />
<glyph unicode="&#xc3;" horiz-adv-x="1290" d="M-14 0l589 1462h156l574 -1462h-150l-178 455h-666l-176 -455h-149zM328 1620q10 80 58 138.5t124 58.5q63 0 153.5 -45.5t122.5 -45.5q76 1 107 99h78q-12 -80 -58.5 -137.5t-119.5 -57.5q-59 0 -154 45q-102 49 -123 49q-47 0 -77.5 -27.5t-30.5 -76.5h-80zM354 573 h576l-283 750z" />
<glyph unicode="&#xc4;" horiz-adv-x="1290" d="M-14 0l589 1462h156l574 -1462h-150l-178 455h-666l-176 -455h-149zM354 573h576l-283 750zM399 1614v207h140v-207h-140zM762 1614v207h139v-207h-139z" />
<glyph unicode="&#xc5;" horiz-adv-x="1290" d="M-14 0l589 1462h156l574 -1462h-150l-178 455h-666l-176 -455h-149zM354 573h576l-283 750zM432 1720.5q0 94.5 66.5 161t161 66.5t160 -66.5t65.5 -161t-65.5 -160t-160 -65.5t-161 65.5t-66.5 160zM532 1720.5q0 -53.5 37 -90.5t90.5 -37t90 37t36.5 90.5t-36.5 91 t-90 37.5t-90.5 -37.5t-37 -91z" />
<glyph unicode="&#xc6;" horiz-adv-x="1857" d="M-14 0l766 1462h1050v-119h-751v-528h704v-119h-704v-577h759v-119h-899v463h-530l-238 -463h-157zM442 582h469v761h-82z" />
<glyph unicode="&#xc7;" horiz-adv-x="1441" d="M78 731q0 205 74.5 375t234.5 278.5t381 108.5q219 0 390 -127t198 -346h-139q-37 166 -161 260t-288 94q-139 0 -247.5 -55t-173 -147.5t-97.5 -204t-33 -236.5t33 -236.5t97.5 -203.5t173 -147.5t247.5 -55.5q197 0 323 133t146 336h139q-29 -270 -191.5 -429 t-416.5 -159h-2l-68 -88q88 16 163 -12.5t75 -114.5t-68.5 -131t-156.5 -45q-104 0 -193 43l29 66q70 -29 162 -29q47 0 77.5 22.5t30.5 65.5q0 35 -25.5 56.5t-62.5 21.5q-72 0 -104 -17l-33 31l104 135q-199 16 -342 127t-209.5 274t-66.5 357z" />
<glyph unicode="&#xc8;" horiz-adv-x="1214" d="M147 0v1462h1010v-119h-870v-528h815v-119h-815v-577h880v-119h-1020zM399 1868h160l215 -289h-104z" />
<glyph unicode="&#xc9;" horiz-adv-x="1214" d="M147 0v1462h1010v-119h-870v-528h815v-119h-815v-577h880v-119h-1020zM571 1579l215 289h160l-270 -289h-105z" />
<glyph unicode="&#xca;" horiz-adv-x="1214" d="M147 0v1462h1010v-119h-870v-528h815v-119h-815v-577h880v-119h-1020zM369 1579l233 289h141l234 -289h-133l-176 209l-181 -209h-118z" />
<glyph unicode="&#xcb;" horiz-adv-x="1214" d="M147 0v1462h1010v-119h-870v-528h815v-119h-815v-577h880v-119h-1020zM422 1614v207h139v-207h-139zM784 1614v207h140v-207h-140z" />
<glyph unicode="&#xcc;" horiz-adv-x="454" d="M-84 1868h160l215 -289h-105zM158 0v1462h139v-1462h-139z" />
<glyph unicode="&#xcd;" horiz-adv-x="454" d="M158 0v1462h139v-1462h-139zM168 1579l215 289h160l-271 -289h-104z" />
<glyph unicode="&#xce;" horiz-adv-x="454" d="M-76 1579l234 289h141l233 -289h-133l-176 209l-180 -209h-119zM158 0v1462h139v-1462h-139z" />
<glyph unicode="&#xcf;" horiz-adv-x="454" d="M-23 1614v207h140v-207h-140zM158 0v1462h139v-1462h-139zM340 1614v207h139v-207h-139z" />
<glyph unicode="&#xd0;" horiz-adv-x="1402" d="M0 713v92h147v657h506q672 -16 672 -731t-672 -731h-506v713h-147zM287 119h297q315 -2 458.5 142.5t143.5 470t-143.5 470t-458.5 141.5h-297v-538h483v-92h-483v-594z" />
<glyph unicode="&#xd1;" horiz-adv-x="1441" d="M145 0v1462h156l852 -1237h4v1237h139v-1462h-155l-852 1237h-4v-1237h-140zM438 1620q10 80 58.5 138.5t124.5 58.5q63 0 153 -45.5t123 -45.5q76 1 107 99h77q-12 -80 -58 -137.5t-120 -57.5q-59 0 -153 45q-102 49 -123 49q-47 0 -78 -27.5t-31 -76.5h-80z" />
<glyph unicode="&#xd2;" horiz-adv-x="1517" d="M70 731q0 205 74.5 375t234.5 278.5t381 108.5q166 0 300 -62.5t217 -169t127 -242.5t44 -287.5t-44 -288t-127 -243t-217 -169t-300 -62.5q-221 0 -381 108.5t-234.5 278.5t-74.5 375zM209 731q0 -125 32.5 -236.5t97 -203.5t173.5 -147.5t248 -55.5t247.5 55.5 t172 147.5t96.5 203.5t33 236.5t-33 236.5t-96.5 204t-172 147.5t-247.5 55t-248 -55t-173.5 -147.5t-97 -204t-32.5 -236.5zM485 1868h160l215 -289h-104z" />
<glyph unicode="&#xd3;" horiz-adv-x="1517" d="M70 731q0 205 74.5 375t234.5 278.5t381 108.5q166 0 300 -62.5t217 -169t127 -242.5t44 -287.5t-44 -288t-127 -243t-217 -169t-300 -62.5q-221 0 -381 108.5t-234.5 278.5t-74.5 375zM209 731q0 -125 32.5 -236.5t97 -203.5t173.5 -147.5t248 -55.5t247.5 55.5 t172 147.5t96.5 203.5t33 236.5t-33 236.5t-96.5 204t-172 147.5t-247.5 55t-248 -55t-173.5 -147.5t-97 -204t-32.5 -236.5zM655 1579l215 289h160l-270 -289h-105z" />
<glyph unicode="&#xd4;" horiz-adv-x="1517" d="M70 731q0 205 74.5 375t234.5 278.5t381 108.5q166 0 300 -62.5t217 -169t127 -242.5t44 -287.5t-44 -288t-127 -243t-217 -169t-300 -62.5q-221 0 -381 108.5t-234.5 278.5t-74.5 375zM209 731q0 -125 32.5 -236.5t97 -203.5t173.5 -147.5t248 -55.5t247.5 55.5 t172 147.5t96.5 203.5t33 236.5t-33 236.5t-96.5 204t-172 147.5t-247.5 55t-248 -55t-173.5 -147.5t-97 -204t-32.5 -236.5zM455 1579l233 289h141l234 -289h-133l-176 209l-181 -209h-118z" />
<glyph unicode="&#xd5;" horiz-adv-x="1517" d="M70 731q0 205 74.5 375t234.5 278.5t381 108.5q166 0 300 -62.5t217 -169t127 -242.5t44 -287.5t-44 -288t-127 -243t-217 -169t-300 -62.5q-221 0 -381 108.5t-234.5 278.5t-74.5 375zM209 731q0 -125 32.5 -236.5t97 -203.5t173.5 -147.5t248 -55.5t247.5 55.5 t172 147.5t96.5 203.5t33 236.5t-33 236.5t-96.5 204t-172 147.5t-247.5 55t-248 -55t-173.5 -147.5t-97 -204t-32.5 -236.5zM436 1620q10 80 58.5 138.5t123.5 58.5q63 0 153.5 -45.5t123.5 -45.5q75 1 106 99h78q-12 -80 -58 -137.5t-120 -57.5q-59 0 -153 45 q-102 49 -123 49q-47 0 -78 -27.5t-31 -76.5h-80z" />
<glyph unicode="&#xd6;" horiz-adv-x="1517" d="M70 731q0 205 74.5 375t234.5 278.5t381 108.5q166 0 300 -62.5t217 -169t127 -242.5t44 -287.5t-44 -288t-127 -243t-217 -169t-300 -62.5q-221 0 -381 108.5t-234.5 278.5t-74.5 375zM209 731q0 -125 32.5 -236.5t97 -203.5t173.5 -147.5t248 -55.5t247.5 55.5 t172 147.5t96.5 203.5t33 236.5t-33 236.5t-96.5 204t-172 147.5t-247.5 55t-248 -55t-173.5 -147.5t-97 -204t-32.5 -236.5zM508 1614v207h139v-207h-139zM870 1614v207h140v-207h-140z" />
<glyph unicode="&#xd7;" horiz-adv-x="1228" d="M152 127l385 387l-385 387l75 76l387 -387l387 387l76 -76l-387 -387l387 -387l-76 -76l-387 385l-387 -385z" />
<glyph unicode="&#xd8;" horiz-adv-x="1517" d="M70 731q0 205 74.5 375t234.5 278.5t381 108.5q287 0 471 -180l145 160l54 -48l-150 -165q168 -207 168 -529q0 -152 -44 -288t-127 -242.5t-217 -169t-300 -62.5q-291 0 -473 183l-156 -177l-55 52l162 180q-168 211 -168 524zM209 731q0 -254 119 -424l815 907 q-145 160 -383 160q-139 0 -248 -55t-173.5 -147.5t-97 -204t-32.5 -236.5zM375 250q145 -162 385 -162q139 0 247.5 55.5t172 147.5t96.5 203.5t33 236.5q0 258 -121 426z" />
<glyph unicode="&#xd9;" horiz-adv-x="1402" d="M133 526v936h139v-905q-2 -246 109 -357.5t319 -111.5q211 0 322 111.5t108 357.5v905h140v-936q0 -246 -140.5 -401.5t-429.5 -155.5q-287 0 -427 156.5t-140 400.5zM424 1868h160l215 -289h-105z" />
<glyph unicode="&#xda;" horiz-adv-x="1402" d="M133 526v936h139v-905q-2 -246 109 -357.5t319 -111.5q211 0 322 111.5t108 357.5v905h140v-936q0 -246 -140.5 -401.5t-429.5 -155.5q-287 0 -427 156.5t-140 400.5zM596 1579l215 289h160l-271 -289h-104z" />
<glyph unicode="&#xdb;" horiz-adv-x="1402" d="M133 526v936h139v-905q-2 -246 109 -357.5t319 -111.5q211 0 322 111.5t108 357.5v905h140v-936q0 -246 -140.5 -401.5t-429.5 -155.5q-287 0 -427 156.5t-140 400.5zM393 1548l234 289h141l233 -289h-133l-176 209l-180 -209h-119z" />
<glyph unicode="&#xdc;" horiz-adv-x="1402" d="M133 526v936h139v-905q-2 -246 109 -357.5t319 -111.5q211 0 322 111.5t108 357.5v905h140v-936q0 -246 -140.5 -401.5t-429.5 -155.5q-287 0 -427 156.5t-140 400.5zM446 1583v207h140v-207h-140zM809 1583v207h139v-207h-139z" />
<glyph unicode="&#xdd;" horiz-adv-x="1251" d="M-20 1462h165l482 -741l479 741h166l-578 -860v-602h-139v602zM545 1579l215 289h160l-271 -289h-104z" />
<glyph unicode="&#xde;" horiz-adv-x="1290" d="M147 0v1462h140v-239h510q199 0 316.5 -111t117.5 -307.5t-118 -307t-316 -110.5h-510v-387h-140zM287 506h479q150 0 238 76.5t88 222t-88.5 222.5t-237.5 77h-479v-598z" />
<glyph unicode="&#xdf;" horiz-adv-x="1099" d="M125 0v1096q0 197 109.5 297t297.5 100q172 0 287 -96.5t115 -263.5q0 -115 -61.5 -200t-170.5 -108v-4q143 -12 224.5 -121.5t81.5 -257.5q0 -219 -125 -335.5t-330 -122.5q-68 0 -102 4v112q43 -8 96 -8q139 -2 235.5 80t96.5 248q0 104 -30 171.5t-91.5 102.5 t-132 47.5t-174.5 12.5v108q354 0 354 266q0 111 -79 183.5t-191 72.5q-147 0 -214 -74.5t-67 -224.5v-1085h-129z" />
<glyph unicode="&#xe0;" horiz-adv-x="1062" d="M66 279q0 80 29.5 138t72.5 90t117.5 54.5t134 31.5t155.5 19q12 0 19.5 1t19 2t19.5 3q92 10 129 37t37 107q0 217 -277 217q-127 0 -203.5 -61.5t-78.5 -184.5h-129q8 178 122.5 266t305.5 88q389 0 389 -339v-562q0 -78 76 -77q20 0 40 8v-109q-39 -8 -83 -8 q-92 0 -122 45t-30 139h-4q-74 -113 -158 -164t-227 -51q-156 0 -255 79t-99 231zM195 287q0 -92 70.5 -150.5t164.5 -58.5q154 0 262.5 91t106.5 241v168h-4q-16 -31 -109 -48q-37 -6 -110.5 -17t-115.5 -17.5t-99.5 -23.5t-88 -38.5t-54 -59.5t-23.5 -87zM279 1493h159 l215 -289h-104z" />
<glyph unicode="&#xe1;" horiz-adv-x="1062" d="M66 279q0 80 29.5 138t72.5 90t117.5 54.5t134 31.5t155.5 19q12 0 19.5 1t19 2t19.5 3q92 10 129 37t37 107q0 217 -277 217q-127 0 -203.5 -61.5t-78.5 -184.5h-129q8 178 122.5 266t305.5 88q389 0 389 -339v-562q0 -78 76 -77q20 0 40 8v-109q-39 -8 -83 -8 q-92 0 -122 45t-30 139h-4q-74 -113 -158 -164t-227 -51q-156 0 -255 79t-99 231zM195 287q0 -92 70.5 -150.5t164.5 -58.5q154 0 262.5 91t106.5 241v168h-4q-16 -31 -109 -48q-37 -6 -110.5 -17t-115.5 -17.5t-99.5 -23.5t-88 -38.5t-54 -59.5t-23.5 -87zM465 1204 l215 289h160l-271 -289h-104z" />
<glyph unicode="&#xe2;" horiz-adv-x="1062" d="M66 279q0 80 29.5 138t72.5 90t117.5 54.5t134 31.5t155.5 19q12 0 19.5 1t19 2t19.5 3q92 10 129 37t37 107q0 217 -277 217q-127 0 -203.5 -61.5t-78.5 -184.5h-129q8 178 122.5 266t305.5 88q389 0 389 -339v-562q0 -78 76 -77q20 0 40 8v-109q-39 -8 -83 -8 q-92 0 -122 45t-30 139h-4q-74 -113 -158 -164t-227 -51q-156 0 -255 79t-99 231zM195 287q0 -92 70.5 -150.5t164.5 -58.5q154 0 262.5 91t106.5 241v168h-4q-16 -31 -109 -48q-37 -6 -110.5 -17t-115.5 -17.5t-99.5 -23.5t-88 -38.5t-54 -59.5t-23.5 -87zM252 1204 l233 289h142l233 -289h-133l-176 209l-180 -209h-119z" />
<glyph unicode="&#xe3;" horiz-adv-x="1062" d="M66 279q0 80 29.5 138t72.5 90t117.5 54.5t134 31.5t155.5 19q12 0 19.5 1t19 2t19.5 3q92 10 129 37t37 107q0 217 -277 217q-127 0 -203.5 -61.5t-78.5 -184.5h-129q8 178 122.5 266t305.5 88q389 0 389 -339v-562q0 -78 76 -77q20 0 40 8v-109q-39 -8 -83 -8 q-92 0 -122 45t-30 139h-4q-74 -113 -158 -164t-227 -51q-156 0 -255 79t-99 231zM195 287q0 -92 70.5 -150.5t164.5 -58.5q154 0 262.5 91t106.5 241v168h-4q-16 -31 -109 -48q-37 -6 -110.5 -17t-115.5 -17.5t-99.5 -23.5t-88 -38.5t-54 -59.5t-23.5 -87zM209 1245 q10 80 58 138.5t124 58.5q63 0 153.5 -45t123.5 -45q75 0 106 98h78q-12 -80 -58 -137.5t-120 -57.5q-59 0 -154 45q-102 49 -123 50q-47 0 -77.5 -28t-30.5 -77h-80z" />
<glyph unicode="&#xe4;" horiz-adv-x="1062" d="M66 279q0 80 29.5 138t72.5 90t117.5 54.5t134 31.5t155.5 19q12 0 19.5 1t19 2t19.5 3q92 10 129 37t37 107q0 217 -277 217q-127 0 -203.5 -61.5t-78.5 -184.5h-129q8 178 122.5 266t305.5 88q389 0 389 -339v-562q0 -78 76 -77q20 0 40 8v-109q-39 -8 -83 -8 q-92 0 -122 45t-30 139h-4q-74 -113 -158 -164t-227 -51q-156 0 -255 79t-99 231zM195 287q0 -92 70.5 -150.5t164.5 -58.5q154 0 262.5 91t106.5 241v168h-4q-16 -31 -109 -48q-37 -6 -110.5 -17t-115.5 -17.5t-99.5 -23.5t-88 -38.5t-54 -59.5t-23.5 -87zM281 1239v207 h139v-207h-139zM643 1239v207h139v-207h-139z" />
<glyph unicode="&#xe5;" horiz-adv-x="1062" d="M66 279q0 80 29.5 138t72.5 90t117.5 54.5t134 31.5t155.5 19q12 0 19.5 1t19 2t19.5 3q92 10 129 37t37 107q0 217 -277 217q-127 0 -203.5 -61.5t-78.5 -184.5h-129q8 178 122.5 266t305.5 88q389 0 389 -339v-562q0 -78 76 -77q20 0 40 8v-109q-39 -8 -83 -8 q-92 0 -122 45t-30 139h-4q-74 -113 -158 -164t-227 -51q-156 0 -255 79t-99 231zM195 287q0 -92 70.5 -150.5t164.5 -58.5q154 0 262.5 91t106.5 241v168h-4q-16 -31 -109 -48q-37 -6 -110.5 -17t-115.5 -17.5t-99.5 -23.5t-88 -38.5t-54 -59.5t-23.5 -87zM313 1315 q0 94 66.5 160.5t161 66.5t160 -66.5t65.5 -160.5t-65.5 -159.5t-160 -65.5t-161 65.5t-66.5 159.5zM414 1315q0 -53 36.5 -90t90 -37t90.5 37t37 90t-37 91t-90.5 38t-90 -38t-36.5 -91z" />
<glyph unicode="&#xe6;" horiz-adv-x="1781" d="M66 279q0 80 29.5 138t72.5 90t117.5 54.5t134 31.5t155.5 19q12 0 19.5 1t19 2t19.5 3q92 10 129 37t37 107q0 217 -277 217q-127 0 -203.5 -61.5t-78.5 -184.5h-129q8 178 122.5 266t305.5 88q322 0 352 -219h4q41 106 144.5 162.5t226.5 56.5q125 0 217 -48t142 -134 t73.5 -187t23.5 -224h-794q-12 -178 77 -297t267 -119q254 0 313 264h129q-41 -178 -159.5 -275.5t-301.5 -97.5q-291 0 -387 267h-4q-23 -123 -156 -195t-286 -72q-156 0 -255 79t-99 231zM195 287q0 -92 70.5 -150.5t164.5 -58.5q154 0 262.5 91t106.5 241v168h-4 q-16 -31 -109 -48q-37 -6 -110.5 -17t-115.5 -17.5t-99.5 -23.5t-88 -38.5t-54 -59.5t-23.5 -87zM928 602h665q0 152 -93 264.5t-240 112.5q-156 0 -246 -110.5t-86 -266.5z" />
<glyph unicode="&#xe7;" horiz-adv-x="1062" d="M70 528q0 238 133 398.5t366 160.5q174 0 291 -93t137 -269h-129q-55 254 -299 254q-176 0 -273 -134t-97 -316.5t97 -316.5t273 -134q121 0 208.5 85t99.5 216h129q-27 -188 -140.5 -297t-287.5 -113l-68 -88q88 16 163 -12.5t75 -114.5t-69 -131t-157 -45 q-104 0 -192 43l28 66q70 -29 162 -29q47 0 78 22.5t31 65.5q0 35 -25.5 56.5t-62.5 21.5q-72 0 -105 -17l-33 31l105 135q-207 23 -322.5 178.5t-115.5 376.5z" />
<glyph unicode="&#xe8;" horiz-adv-x="1062" d="M70 528q0 147 47 269.5t158.5 206t271.5 83.5q123 0 217 -50t147.5 -136t79 -189t21.5 -218h-813q2 -164 90 -290t258 -126q262 0 332 270h129q-88 -379 -461 -379q-238 0 -357.5 158t-119.5 401zM199 602h684q-4 156 -95.5 266.5t-241 110.5t-240.5 -109.5t-107 -267.5z M258 1493h160l215 -289h-105z" />
<glyph unicode="&#xe9;" horiz-adv-x="1062" d="M70 528q0 147 47 269.5t158.5 206t271.5 83.5q123 0 217 -50t147.5 -136t79 -189t21.5 -218h-813q2 -164 90 -290t258 -126q262 0 332 270h129q-88 -379 -461 -379q-238 0 -357.5 158t-119.5 401zM199 602h684q-4 156 -95.5 266.5t-241 110.5t-240.5 -109.5t-107 -267.5z M467 1204l215 289h160l-271 -289h-104z" />
<glyph unicode="&#xea;" horiz-adv-x="1062" d="M70 528q0 147 47 269.5t158.5 206t271.5 83.5q123 0 217 -50t147.5 -136t79 -189t21.5 -218h-813q2 -164 90 -290t258 -126q262 0 332 270h129q-88 -379 -461 -379q-238 0 -357.5 158t-119.5 401zM199 602h684q-4 156 -95.5 266.5t-241 110.5t-240.5 -109.5t-107 -267.5z M244 1204l233 289h141l234 -289h-133l-176 209l-181 -209h-118z" />
<glyph unicode="&#xeb;" horiz-adv-x="1062" d="M70 528q0 147 47 269.5t158.5 206t271.5 83.5q123 0 217 -50t147.5 -136t79 -189t21.5 -218h-813q2 -164 90 -290t258 -126q262 0 332 270h129q-88 -379 -461 -379q-238 0 -357.5 158t-119.5 401zM199 602h684q-4 156 -95.5 266.5t-241 110.5t-240.5 -109.5t-107 -267.5z M281 1239v207h139v-207h-139zM643 1239v207h139v-207h-139z" />
<glyph unicode="&#xec;" horiz-adv-x="378" d="M-137 1493h160l215 -289h-105zM125 0v1057h129v-1057h-129z" />
<glyph unicode="&#xed;" horiz-adv-x="378" d="M125 0v1057h129v-1057h-129zM145 1204l215 289h160l-270 -289h-105z" />
<glyph unicode="&#xee;" horiz-adv-x="378" d="M-115 1204l234 289h141l234 -289h-134l-176 209l-180 -209h-119zM125 0v1057h129v-1057h-129z" />
<glyph unicode="&#xef;" horiz-adv-x="378" d="M-61 1239v207h139v-207h-139zM125 0v1057h129v-1057h-129zM301 1239v207h139v-207h-139z" />
<glyph unicode="&#xf0;" d="M70 510q0 223 130 374.5t355 151.5q197 0 272 -82h4q-94 176 -272 322l-215 -121l-68 66l205 114q-104 70 -190 113l74 72q125 -63 213 -131l233 131l68 -66l-224 -125q401 -330 402 -801q0 -244 -128 -401.5t-374 -157.5q-238 0 -361.5 150.5t-123.5 390.5zM199 508 q0 -182 91 -306t271 -124q176 0 271.5 118.5t95.5 315.5q0 172 -90.5 294t-272.5 122q-186 0 -276 -118t-90 -302z" />
<glyph unicode="&#xf1;" horiz-adv-x="1099" d="M121 0v1057h129v-183h4q35 94 130 153.5t208 59.5q213 0 300 -103t87 -304v-680h-129v659q0 319 -268 320q-150 0 -239 -101.5t-93 -261.5v-616h-129zM227 1245q10 80 58.5 138.5t124.5 58.5q63 0 153 -45t123 -45q76 0 107 98h77q-12 -80 -58 -137.5t-120 -57.5 q-59 0 -153 45q-102 49 -123 50q-47 0 -78 -28t-31 -77h-80z" />
<glyph unicode="&#xf2;" d="M70 528.5q0 237.5 133 398t366.5 160.5t366.5 -160.5t133 -398t-133 -398.5t-366.5 -161t-366.5 161t-133 398.5zM199 528.5q0 -182.5 97 -316.5t273 -134t273.5 134t97.5 316.5t-97.5 316.5t-273.5 134t-273 -134t-97 -316.5zM238 1493h159l215 -289h-104z" />
<glyph unicode="&#xf3;" d="M70 528.5q0 237.5 133 398t366.5 160.5t366.5 -160.5t133 -398t-133 -398.5t-366.5 -161t-366.5 161t-133 398.5zM199 528.5q0 -182.5 97 -316.5t273 -134t273.5 134t97.5 316.5t-97.5 316.5t-273.5 134t-273 -134t-97 -316.5zM467 1204l215 289h160l-271 -289h-104z" />
<glyph unicode="&#xf4;" d="M70 528.5q0 237.5 133 398t366.5 160.5t366.5 -160.5t133 -398t-133 -398.5t-366.5 -161t-366.5 161t-133 398.5zM199 528.5q0 -182.5 97 -316.5t273 -134t273.5 134t97.5 316.5t-97.5 316.5t-273.5 134t-273 -134t-97 -316.5zM266 1204l234 289h141l233 -289h-133 l-176 209l-180 -209h-119z" />
<glyph unicode="&#xf5;" d="M70 528.5q0 237.5 133 398t366.5 160.5t366.5 -160.5t133 -398t-133 -398.5t-366.5 -161t-366.5 161t-133 398.5zM199 528.5q0 -182.5 97 -316.5t273 -134t273.5 134t97.5 316.5t-97.5 316.5t-273.5 134t-273 -134t-97 -316.5zM248 1245q10 80 58 138.5t124 58.5 q63 0 153.5 -45t123.5 -45q75 0 106 98h78q-12 -80 -58.5 -137.5t-119.5 -57.5q-59 0 -154 45q-102 49 -123 50q-47 0 -77.5 -28t-30.5 -77h-80z" />
<glyph unicode="&#xf6;" d="M70 528.5q0 237.5 133 398t366.5 160.5t366.5 -160.5t133 -398t-133 -398.5t-366.5 -161t-366.5 161t-133 398.5zM199 528.5q0 -182.5 97 -316.5t273 -134t273.5 134t97.5 316.5t-97.5 316.5t-273.5 134t-273 -134t-97 -316.5zM319 1239v207h140v-207h-140zM682 1239v207 h139v-207h-139z" />
<glyph unicode="&#xf7;" horiz-adv-x="1228" d="M100 461v108h1030v-108h-1030zM500 102.5q0 47.5 33.5 81t80.5 33.5q45 0 80 -35t35 -80q0 -43 -35 -78.5t-78 -35.5q-47 0 -81.5 33.5t-34.5 81zM500 928q0 47 33.5 80.5t80.5 33.5q45 0 80 -33.5t35 -80.5q0 -43 -35 -79t-78 -36q-47 0 -81.5 34t-34.5 81z" />
<glyph unicode="&#xf8;" d="M59 18l125 138q-115 150 -114 372q0 238 133 398.5t366 160.5q215 0 349 -139l106 115l45 -41l-111 -121q111 -154 111 -373q0 -238 -133 -398.5t-367 -160.5q-215 0 -344 140l-121 -132zM199 528q-1 -157 73 -276l559 604q-98 123 -262 123q-176 0 -273 -134t-97 -317z M309 199q96 -121 260 -121q176 0 273.5 134t97.5 316q0 158 -72 275z" />
<glyph unicode="&#xf9;" horiz-adv-x="1099" d="M121 371v686h129v-688q4 -147 68.5 -219t213.5 -72q156 0 237 124t81 300v555h129v-1057h-119v190h-4q-49 -104 -147.5 -162.5t-216.5 -58.5q-371 0 -371 402zM297 1493h160l215 -289h-105z" />
<glyph unicode="&#xfa;" horiz-adv-x="1099" d="M121 371v686h129v-688q4 -147 68.5 -219t213.5 -72q156 0 237 124t81 300v555h129v-1057h-119v190h-4q-49 -104 -147.5 -162.5t-216.5 -58.5q-371 0 -371 402zM469 1204l215 289h160l-271 -289h-104z" />
<glyph unicode="&#xfb;" horiz-adv-x="1099" d="M121 371v686h129v-688q4 -147 68.5 -219t213.5 -72q156 0 237 124t81 300v555h129v-1057h-119v190h-4q-49 -104 -147.5 -162.5t-216.5 -58.5q-371 0 -371 402zM246 1204l233 289h142l233 -289h-133l-176 209l-180 -209h-119z" />
<glyph unicode="&#xfc;" horiz-adv-x="1099" d="M121 371v686h129v-688q4 -147 68.5 -219t213.5 -72q156 0 237 124t81 300v555h129v-1057h-119v190h-4q-49 -104 -147.5 -162.5t-216.5 -58.5q-371 0 -371 402zM299 1239v207h139v-207h-139zM662 1239v207h139v-207h-139z" />
<glyph unicode="&#xfd;" horiz-adv-x="948" d="M4 1057h137l348 -901l326 901h129l-459 -1219q-57 -139 -109 -184t-169 -45q-80 4 -98 10v109q51 -10 88 -11q41 0 69.5 10.5t50 38t31.5 48t33 69.5l45 121zM393 1204l215 289h160l-270 -289h-105z" />
<glyph unicode="&#xfe;" horiz-adv-x="1175" d="M123 -391v1853h129v-606h4q41 111 142.5 171t224.5 60q229 0 352 -159.5t123 -399t-123 -399.5t-352 -160q-123 0 -224.5 60.5t-142.5 171.5h-4v-592h-129zM252 528.5q0 -186.5 90 -318.5t281 -132q117 0 197.5 68.5t114.5 167t34 215t-34 215t-115 167t-197 68.5 q-190 0 -280.5 -132t-90.5 -318.5z" />
<glyph unicode="&#xff;" horiz-adv-x="948" d="M4 1057h137l348 -901l326 901h129l-459 -1219q-57 -139 -109 -184t-169 -45q-80 4 -98 10v109q51 -10 88 -11q41 0 69.5 10.5t50 38t31.5 48t33 69.5l45 121zM242 1239v207h139v-207h-139zM604 1239v207h139v-207h-139z" />
<glyph unicode="&#x152;" horiz-adv-x="2199" d="M76 731.5q0 319.5 188.5 540.5t503.5 221q264 0 397 -152v121h971v-119h-831v-528h753v-119h-753v-577h837v-119h-977v143q-70 -84 -178 -129t-219 -45q-315 0 -503.5 221.5t-188.5 541zM215 731.5q0 -272.5 147.5 -458t405.5 -185.5q231 0 360 162q33 40 37 112v680 q0 94 -10 136q-33 88 -151.5 142t-235.5 54q-258 0 -405.5 -185t-147.5 -457.5z" />
<glyph unicode="&#x153;" horiz-adv-x="1820" d="M74 528q0 236 120.5 397.5t350.5 161.5q139 0 237.5 -65.5t139.5 -194.5h4q43 117 147.5 188.5t241.5 71.5q453 0 452 -593h-786q0 -170 84 -293t246 -123q249 0 325 262h129q-43 -176 -164.5 -273.5t-302.5 -97.5q-135 0 -240.5 71t-135.5 198h-4q-37 -131 -137.5 -200 t-241.5 -69q-233 0 -349 159t-116 400zM203 504q0 -176 84 -301t254 -125q311 0 311 459q0 442 -309 442q-127 0 -207 -76t-106.5 -176t-26.5 -223zM981 602h657q0 158 -87 267.5t-240 109.5q-156 0 -243 -108.5t-87 -268.5z" />
<glyph unicode="&#x178;" horiz-adv-x="1251" d="M-20 1462h165l482 -741l479 741h166l-578 -860v-602h-139v602zM375 1614v207h139v-207h-139zM737 1614v207h140v-207h-140z" />
<glyph unicode="&#x2c6;" horiz-adv-x="378" d="M-115 1204l234 289h141l234 -289h-134l-176 209l-180 -209h-119z" />
<glyph unicode="&#x2dc;" horiz-adv-x="378" d="M-133 1245q10 80 58 138.5t124 58.5q63 0 153.5 -45t123.5 -45q75 0 106 98h78q-12 -80 -58 -137.5t-120 -57.5q-59 0 -154 45q-102 49 -123 50q-47 0 -77.5 -28t-30.5 -77h-80z" />
<glyph unicode="&#x2000;" horiz-adv-x="974" />
<glyph unicode="&#xf003;" horiz-adv-x="1792" d="M1664 32v768q-32 -36 -69 -66q-268 -206 -426 -338q-51 -43 -83 -67t-86.5 -48.5t-102.5 -24.5h-1h-1q-48 0 -102.5 24.5t-86.5 48.5t-83 67q-158 132 -426 338q-37 30 -69 66v-768q0 -13 9.5 -22.5t22.5 -9.5h1472q13 0 22.5 9.5t9.5 22.5zM1664 1083v11v13.5t-0.5 13 t-3 12.5t-5.5 9t-9 7.5t-14 2.5h-1472q-13 0 -22.5 -9.5t-9.5 -22.5q0 -168 147 -284q193 -152 401 -317q6 -5 35 -29.5t46 -37.5t44.5 -31.5t50.5 -27.5t43 -9h1h1q20 0 43 9t50.5 27.5t44.5 31.5t46 37.5t35 29.5q208 165 401 317q54 43 100.5 115.5t46.5 131.5z M1792 1120v-1088q0 -66 -47 -113t-113 -47h-1472q-66 0 -113 47t-47 113v1088q0 66 47 113t113 47h1472q66 0 113 -47t47 -113z" />
<glyph unicode="&#x2001;" horiz-adv-x="1948" />
<glyph unicode="&#xf00c;" horiz-adv-x="1792" d="M1671 970q0 -40 -28 -68l-724 -724l-136 -136q-28 -28 -68 -28t-68 28l-136 136l-362 362q-28 28 -28 68t28 68l136 136q28 28 68 28t68 -28l294 -295l656 657q28 28 68 28t68 -28l136 -136q28 -28 28 -68z" />
<glyph unicode="&#x2002;" horiz-adv-x="974" />
<glyph unicode="&#x2003;" horiz-adv-x="1948" />
<glyph unicode="&#x2004;" horiz-adv-x="649" />
<glyph unicode="&#x2005;" horiz-adv-x="487" />
<glyph unicode="&#x2006;" horiz-adv-x="324" />
<glyph unicode="&#x2007;" horiz-adv-x="324" />
<glyph unicode="&#x2008;" horiz-adv-x="243" />
<glyph unicode="&#x2009;" horiz-adv-x="389" />
<glyph unicode="&#x200a;" horiz-adv-x="108" />
<glyph unicode="&#x2010;" horiz-adv-x="757" d="M123 504v119h512v-119h-512z" />
<glyph unicode="&#x2011;" horiz-adv-x="757" d="M123 504v119h512v-119h-512z" />
<glyph unicode="&#x2012;" horiz-adv-x="757" d="M123 504v119h512v-119h-512z" />
<glyph unicode="&#x2013;" horiz-adv-x="1024" d="M0 504v119h1024v-119h-1024z" />
<glyph unicode="&#x2014;" horiz-adv-x="2048" d="M266 504v119h1516v-119h-1516z" />
<glyph unicode="&#x2018;" horiz-adv-x="569" d="M195 965v219q2 96 48 175t134 103v-88q-49 -16 -75 -75.5t-21 -116.5h86v-217h-172z" />
<glyph unicode="&#x2019;" horiz-adv-x="569" d="M193 965v88q49 16 74.5 75.5t21.5 116.5h-86v217h172v-219q-2 -96 -48 -175t-134 -103z" />
<glyph unicode="&#x201a;" horiz-adv-x="569" d="M193 -193q49 16 74.5 76t21.5 117h-86v217h172v-219q-2 -96 -48 -175t-134 -104v88z" />
<glyph unicode="&#x201c;" horiz-adv-x="757" d="M131 965v219q2 96 48 175t134 103v-88q-49 -16 -74.5 -75.5t-21.5 -116.5h86v-217h-172zM446 965v219q2 96 48.5 175t134.5 103v-88q-49 -16 -75 -75.5t-22 -116.5h86v-217h-172z" />
<glyph unicode="&#x201d;" horiz-adv-x="757" d="M129 965v88q49 16 74.5 75.5t21.5 116.5h-86v217h172v-219q-2 -96 -48 -175t-134 -103zM444 965v88q49 16 75 75.5t22 116.5h-86v217h172v-219q-2 -96 -48.5 -175t-134.5 -103z" />
<glyph unicode="&#x201e;" horiz-adv-x="757" d="M129 -193q49 16 74.5 76t21.5 117h-86v217h172v-219q-2 -96 -48 -175t-134 -104v88zM444 -193q49 16 75 76t22 117h-86v217h172v-219q-2 -96 -48.5 -175t-134.5 -104v88z" />
<glyph unicode="&#x2022;" horiz-adv-x="1024" d="M147 731.5q0 151.5 106.5 258t258.5 106.5t259.5 -106.5t107.5 -258t-107.5 -259t-259.5 -107.5t-258.5 107.5t-106.5 259z" />
<glyph unicode="&#x2026;" horiz-adv-x="2048" d="M256 0v217h172v-217h-172zM938 0v217h172v-217h-172zM1620 0v217h172v-217h-172z" />
<glyph unicode="&#x202f;" horiz-adv-x="389" />
<glyph unicode="&#x2039;" horiz-adv-x="530" d="M109 500v127l272 256v-138l-193 -182l193 -182v-137z" />
<glyph unicode="&#x203a;" horiz-adv-x="530" d="M150 244v137l192 182l-192 182v138l272 -256v-127z" />
<glyph unicode="&#x205f;" horiz-adv-x="487" />
<glyph unicode="&#x20ac;" d="M31 584l39 92h90q-2 10 -2 41q0 14 4 80h-131l37 92h104q47 254 188 401q156 168 400 168q254 0 381 -158l-56 -120q-135 162 -327 161q-188 0 -307 -137q-104 -121 -142 -315h682l-37 -92h-657q-6 -51 -6 -88q0 -23 2 -33h622l-38 -92h-578q29 -215 129 -346 q123 -154 324 -154q109 0 196 47q72 41 160 129v-158q-158 -133 -360 -133q-256 0 -414 183q-137 162 -168 432h-135z" />
<glyph unicode="&#x2122;" horiz-adv-x="2027" d="M168 1370v92h657v-92h-274v-752h-109v752h-274zM975 618v844h174l272 -684l265 684h174v-844h-109v746h-4l-299 -746h-62l-299 746h-4v-746h-108z" />
<glyph unicode="&#x25fc;" horiz-adv-x="1054" d="M0 0v1055h1055v-1055h-1055z" />
<glyph unicode="&#xfb01;" horiz-adv-x="909" d="M12 948v109h181v96q-2 150 54 229.5t202 79.5q53 0 108 -8v-111q-57 10 -94 11q-41 0 -69.5 -12.5t-42 -24.5t-20.5 -48t-8 -52.5t-1 -67.5v-92h208v-109h-208v-948h-129v948h-181zM655 0v1057h129v-1057h-129zM655 1255v207h129v-207h-129z" />
<glyph unicode="&#xfb02;" horiz-adv-x="909" d="M12 948v109h181v96q-2 150 54 229.5t202 79.5q53 0 108 -8v-111q-57 10 -94 11q-41 0 -69.5 -12.5t-42 -24.5t-20.5 -48t-8 -52.5t-1 -67.5v-92h208v-109h-208v-948h-129v948h-181zM655 0v1462h129v-1462h-129z" />
</font>
</defs></svg> 