{
  "type": "service_account",
  "project_id": "quotecloud-55f9a",
  "private_key_id": "e47aa5820c13a5e1d136ba635944c68fa5411dd9",
  "private_key": "-----BEGIN PRIVATE KEY-----\nMIIEvgIBADANBgkqhkiG9w0BAQEFAASCBKgwggSkAgEAAoIBAQDEgRodlv2nQ2QO\nDiAfWYeGIHrnFtoXn+Dzlj2hrC39EFUvyi4YkEdrizsvdMGKq50Zcepj0yX6uw7w\nb0ZKB6G8Wbze9M0iWv4SJIDVq/qRD47LRwmiWAq1qwp/DhCzVtpjj5awDlN9eVF5\noURSRgZduUjNXP9c8NiE1hdpxLipEdyIe5nmHwU2LULpvpQy/Q0K3G2UwhRDBbZX\nBBNX2liqgckke/C8vkibODj5gpwiY+ed9WKub4rT8RT/21tP+gLxdcuo7sjahhMn\no5dlVTWHrGXaRY8K2okL6X7/KpyaOueHDf33qLfL5UgE8z7ygF11bZq8mbZQI/kX\nqcjuWe0BAgMBAAECggEAXAgzGQSsi/gOFl8bQFOIG5N+vFiBkGr6ylrlRqEDcPCD\nVTyV1j9Mk9vDvngqZS33CAHISzSLJyEQ4B7dhrKIV1SYFrwEj0CamhiqlmhTlDj7\nIc2Ff5lIesk+wz7tJ3FYGyUW6CHtjGiTdinHe9j8Bk1PAY+6sebDIYO7t3fBHL1E\nsJ5KAP7AFRuPUor0XxvUwqg7sP/ykrquM5NEqHMB67iumES8aU75k3hjQq+g6zmb\nMW4gG1Ed5wDMy339QTuUHyqlNnYdDK24zjbRwX6/ayiNbqv8IrRNSfUtCWMxMYC5\n36HB5nsVRiR5hH7WVOhKNV37bEWnuCmd7pRQELEQeQKBgQDkryfVjcLtP8drkuAy\nSHUk+hOkMlbnWbuvCgttlprBgVWn9UGLo0rIbDNekUSI+E+YXk3R43OOuGOOyJbc\n0vKywWy0O5dBUBGncoJpLpSMVatlUsE9WNGHr64W/ju31XkeDZoNE5ppazQZpcl7\noQ1YdPMcWyN5oOYhH8OYY1z3UwKBgQDb+e4TYnqLMc0TMGrLMCNbF5k1zJyN2rdl\ni4MQDBTI1IMq1bD0zdNbmVezVPO7XcTJ7Vt0fYIwLx0Qaeuppef9+oAfV1y86amJ\nYhiGAJG2rJdblF2uAEw6m0gTSz6BlC7mtn2vu9SPMGL8BWJanXEXiX4sbQeClBuD\nh1GKsbYj2wKBgQCR58dMk7Qo1yaPVhjBPEWxn/TkMFIOLcx3s7ry4sI+cByMmwiE\n5VyTX6Wu0pSdp4BxQMn5/lr+Vlr/ALBwmA7NSmfm3pZ0z3dUFNVr8pJIr2g5r4En\neQHGxqoWdYL4mbU7HYaKjVVZqVKGgqZ4wJrZM1ThZKzPr37k53VORydLjQKBgAMZ\n9v1W+htUTGvk1tyehSEXqBVWGS720ncgDG0BfpmGRYMpGCGbdUtpUg85N2aA3/Fo\n4001J8y+HU7J74SoziiKi5vlg202bil9tJLPFz7YGBo2cUuuvWRmJBIBkZQKHs8p\n64O6xjhumjarbMOSTLHkQl8l+mEg7XJhSgkGkGbZAoGBAM48RK5IiWiDb9CGQmB3\n8Y9EdpRh30i7+yXiJfTWsR/+THgXabYScI0EUWKNBFyotKYxvc1WciyMXJogpwQJ\nHoeSaWF2dDpVv4+WZrk1Xet/L8BiE1mztxK3D9JBEu4TlebvAAUXu9F7g0FVYSWg\n9/Xbc2j5fMYI0sN5drcHPuFl\n-----END PRIVATE KEY-----\n",
  "client_email": "firebase-adminsdk-cvgnd@quotecloud-55f9a.iam.gserviceaccount.com",
  "client_id": "104047209458409483979",
  "auth_uri": "https://accounts.google.com/o/oauth2/auth",
  "token_uri": "https://accounts.google.com/o/oauth2/token",
  "auth_provider_x509_cert_url": "https://www.googleapis.com/oauth2/v1/certs",
  "client_x509_cert_url": "https://www.googleapis.com/robot/v1/metadata/x509/firebase-adminsdk-cvgnd%40quotecloud-55f9a.iam.gserviceaccount.com"
}
